{
    "photos": {
        "page": 1,
        "pages": 26518,
        "perpage": 5,
        "total": 132590,
        "photo": [
            {
                "id": "51674983396",
                "owner": "12852675@N08",
                "secret": "cb69e856b0",
                "server": "65535",
                "farm": 66,
                "title": "DSC_5586 Kitten!",
                "ispublic": 1,
                "isfriend": 0,
                "isfamily": 0
            },
            {
                "id": "51674135377",
                "owner": "58008645@N00",
                "secret": "df0c3135c0",
                "server": "65535",
                "farm": 66,
                "title": "Jet at the Vet",
                "ispublic": 1,
                "isfriend": 0,
                "isfamily": 0
            },
            {
                "id": "51675163458",
                "owner": "18446961@N00",
                "secret": "bbf76cec98",
                "server": "65535",
                "farm": 66,
                "title": "Wizard and Katrina are the other two brother-sister kittens from the beverage distro litter. They've been in separate foster homes but have just been reunited in advance of Sunday's adoption event. You can meet them on Sunday at @bushwickbark, 181 Irving",
                "ispublic": 1,
                "isfriend": 0,
                "isfamily": 0
            },
            {
                "id": "51675458104",
                "owner": "19872565@N00",
                "secret": "cc4fb4c0f7",
                "server": "65535",
                "farm": 66,
                "title": "20180625_4968c",
                "ispublic": 1,
                "isfriend": 0,
                "isfamily": 0
            },
            {
                "id": "51674491891",
                "owner": "30037912@N03",
                "secret": "79cf48f3dd",
                "server": "65535",
                "farm": 66,
                "title": "Fly spotting",
                "ispublic": 1,
                "isfriend": 0,
                "isfamily": 0
            }
        ]
    },
    "stat": "ok"
}
